{
  "license": "license.txt",
  "licenseFormats": {
    "js": {
      "prepend": "/*",
      "append": " */",
      "eachLine": {
        "prepend": " * "
      }
    },
    "ts": {
      "prepend": "/*",
      "append": " */",
      "eachLine": {
        "prepend": " * "
      }
    },
    "css": {
      "prepend": "/*",
      "append": " */"
    },
    "scss": {
      "prepend": "/*",
      "append": " */"
    },
    "dotfile|^Dockerfile": {
      "eachLine": {
        "prepend": "# "
      }
    },
    "vue": {
      "prepend": "<!--",
      "append": " -->"
    },
    "md|mdx": {
      "prepend": "<!--",
      "append": " -->"
    }
  },
  "ignore": [
    ".branchrc",
    ".browserslistrc",
    ".commitlintrc.yml",
    ".czrc",
    ".editorconfig",
    ".eslintignore",
    ".eslintrc.yaml",
    ".gitattributes",
    ".gitignore",
    ".gitlab-ci.yml",
    ".gitlab",
    ".husky",
    ".markdownlint.yml",
    ".npmrc",
    ".prettierignore",
    ".prettierrc.yml",
    ".stylelintignore",
    ".vscode",
    "**/*.svg",
    "babel.config.js",
    "COPYING.LESSER",
    "COPYING",
    "license.txt",
    "LICENSE",
    "node_modules",
    "postcss.config.js",
    "vue.config.js"
  ],
  "trailingWhitespace": "TRIM"
}
