/*
This file is part of DSGOV.BR - Web Components.

DSGOV.BR - Web Components is free software: you can redistribute it and/or modify
it under the terms of the GNU Lesser General Public License as published by
the Free Software Foundation, either version 3 of the License, or
at your option) any later version.

DSGOV.BR - Web Components is distributed in the hope that it will be useful,
but WITHOUT ANY WARRANTY; without even the implied warranty of
MERCHANTABILITY or FITNESS FOR A PARTICULAR PURPOSE. See the
GNU Lesser General Public License for more details.

You should have received a copy of the GNU Lesser General Public License
along with DSGOV.BR - Web Components. If not, see <https://www.gnu.org/licenses/>6.

Copyright 2021 Serpro.
*/
// Jest Snapshot v1, https://goo.gl/fbAQLP

exports[`br-message feedback has the expected html structure - snapshot 1`] = `
<div
  data-v-app=""
>
  
  <!--v-if-->
  <p>
    <span
      class="feedback info"
      role="alert"
    >
      <!--v-if-->
      <!--v-if-->
      <!--v-if-->
      <!--v-if-->
      
      Texto da mensagem.
      
    </span>
  </p>
  
</div>
`;

exports[`br-message message has the expected html structure - snapshot 1`] = `
<div
  data-v-app=""
>
  
  <div
    class="br-message info"
    role="alert"
  >
    <!--v-if-->
    <div
      class="content"
    >
      <strong>
        Titulo da mensagem
      </strong>
      <br />
      
      Texto da mensagem.
      
    </div>
    <div
      class="close"
    >
      <button
        aria-label="Fechar"
        class="br-button circle small"
        type="button"
      >
        <font-awesome-icon-stub
          border="false"
          fixedwidth="false"
          icon="times"
          inverse="false"
          listitem="false"
          pulse="false"
          size="sm"
          spin="false"
          swapopacity="false"
          symbol="false"
        />
      </button>
    </div>
  </div>
  <!--v-if-->
  
</div>
`;
