/*
This file is part of DSGOV.BR - Web Components.

DSGOV.BR - Web Components is free software: you can redistribute it and/or modify
it under the terms of the GNU Lesser General Public License as published by
the Free Software Foundation, either version 3 of the License, or
at your option) any later version.

DSGOV.BR - Web Components is distributed in the hope that it will be useful,
but WITHOUT ANY WARRANTY; without even the implied warranty of
MERCHANTABILITY or FITNESS FOR A PARTICULAR PURPOSE. See the
GNU Lesser General Public License for more details.

You should have received a copy of the GNU Lesser General Public License
along with DSGOV.BR - Web Components. If not, see <https://www.gnu.org/licenses/>6.

Copyright 2021 Serpro.
*/
// Jest Snapshot v1, https://goo.gl/fbAQLP

exports[`br-loading Testa se o componente com a barra de progresso esta renderizando. 1`] = `
<div
  class="br-loading"
  data-progress="80"
  progress="true"
>
  <div
    class="br-loading-mask full"
  >
    <div
      class="br-loading-fill"
    />
  </div>
  <div
    class="br-loading-mask"
  >
    <div
      class="br-loading-fill"
    />
  </div>
</div>
`;

exports[`br-loading Testa se o componente esta renderizando o label do loading circular 1`] = `
<div
  rotulo="Carregando ..."
  style="display: block; text-align: center;"
>
  <div
    class="loading"
  />
  <span
    class="rotulo"
  />
</div>
`;

exports[`br-loading Testa se o componente esta renderizando o loading circular do tipo medium 1`] = `
<div
  style="display: block; text-align: center;"
>
  <div
    class="loading medium"
  />
  <span
    class="rotulo"
  />
</div>
`;

exports[`br-loading Testa se o componente esta renderizando o loading circular do tipo pequeno 1`] = `
<div
  style="display: block; text-align: center;"
>
  <div
    class="loading"
  />
  <span
    class="rotulo"
  />
</div>
`;
